2016-03-16 05:51:14-07:00 --- INFO: Attempting deployment...
2016-03-16 05:51:16-07:00 --- INFO: Changing working directory... 
2016-03-16 05:51:16-07:00 --- INFO: Reseting repository... 
2016-03-16 05:51:16-07:00 --- INFO: Pulling in changes... 
2016-03-16 05:51:16-07:00 --- INFO: Securing .git directory... 
2016-03-16 05:51:16-07:00 --- INFO: Updating wordpress database... 
2016-03-16 05:51:16-07:00 --- INFO: Deployment successful.
2016-04-02 18:26:05-07:00 --- INFO: Reseting repository... HEAD is now at a87d86c Merge branch 'master' of https://bitbucket.org/sthanka/q-lana
2016-04-02 18:26:13-07:00 --- INFO: Pulling in changes... HEAD is now at a87d86c Merge branch 'master' of https://bitbucket.org/sthanka/q-lana
2016-04-02 18:26:13-07:00 --- INFO: Securing .git directory... 
2016-04-02 18:26:16-07:00 --- INFO: Updating wordpress database... 
2016-04-02 18:26:16-07:00 --- INFO: Deployment successful.
